2000,4,10,2,30,S,0,43,0,1,0,0
2001,4,10,2,30,S,0,89,1,0,0,1
2002,4,10,2,30,U,0,107
2003,4,10,2,30,S,0,62,0,1,0,0
2004,4,10,2,30,S,0,57,1,0,0,0
2005,4,10,2,30,U,0,68
2006,4,10,2,30,S,0,24,0,0,0,0
2007,4,10,2,30,U,0,56
2008,4,10,2,30,S,0,27,0,0,0,0
2009,4,10,2,30,U,0,31
2010,8,16,2,48,U,0,134
2011,8,16,2,48,S,0,189,1,1,1,0,1,0,0,0
2012,8,16,2,48,S,0,82,0,0,1,0,0,0,1,0
2013,8,16,2,48,S,0,88,0,0,1,0,0,0,1,1
2014,8,16,2,48,U,0,320
2015,8,16,2,48,U,0,62
2016,8,16,2,48,S,0,116,0,1,1,1,1,0,0,1
2017,8,16,2,48,S,0,62,0,1,0,0,0,1,-1,-1
2018,8,16,2,48,U,0,381
2019,8,16,2,48,U,0,295
2020,12,24,2,72,U,0,2889
2021,12,24,2,72,S,0,717,0,0,1,0,0,1,1,1,0,0,1,1
2022,12,24,2,72,U,0,4237
2023,12,24,2,72,U,0,502
2024,12,24,2,72,S,0,1236,1,0,0,1,0,1,0,0,0,0,0,0
2025,12,24,2,72,U,0,2064
2026,12,24,2,72,U,0,979
2027,12,24,2,72,S,0,197,0,1,0,0,0,0,0,0,1,0,0,1
2028,12,24,2,72,S,0,535,0,0,1,0,0,0,1,0,0,0,0,1
2029,12,24,2,72,U,0,1292
2030,16,32,2,96,U,0,13938
2031,16,32,2,96,U,0,11591
2032,16,32,2,96,U,0,2252
2033,16,32,2,96,S,0,487,0,0,0,1,0,0,1,1,0,1,0,0,1,1,0,0
2034,16,32,2,96,U,0,3164
2035,16,32,2,96,U,0,4383
2036,16,32,2,96,S,0,979,0,0,1,1,0,0,0,0,0,0,0,1,0,1,0,1
2037,16,32,2,96,U,0,9886
2038,16,32,2,96,U,0,516
2039,16,32,2,96,U,0,5984
2040,18,36,2,108,U,0,4663
2041,18,36,2,108,S,0,585,0,0,0,0,0,1,0,1,1,0,0,0,1,0,1,1,0,1
2042,18,36,2,108,U,0,7766
2043,18,36,2,108,U,0,61825
2044,18,36,2,108,U,0,12938
2045,18,36,2,108,S,0,2428,0,0,0,1,0,1,1,0,1,0,1,1,1,0,0,1,1,-1
2046,18,36,2,108,S,0,2860,0,0,1,0,1,0,1,0,1,0,0,0,0,1,1,0,0,1
2047,18,36,2,108,U,0,25655
2048,18,36,2,108,U,0,1395
2049,18,36,2,108,U,0,7991
2050,20,40,2,120,U,0,41495
2051,20,40,2,120,S,0,20013,1,0,0,0,0,0,0,0,1,1,0,1,1,0,1,0,1,1,1,1
2052,20,40,2,120,U,0,26148
2053,20,40,2,120,U,0,8176
2054,20,40,2,120,S,0,6600,0,1,1,1,1,0,1,1,0,1,1,1,0,0,1,0,0,1,1,0
2055,20,40,2,120,U,0,18583
2056,20,40,2,120,U,0,9987
2057,20,40,2,120,S,0,2471,1,0,0,0,1,1,1,0,1,0,1,0,0,0,1,1,0,0,1,1
2058,20,40,2,120,U,0,6245
2059,20,40,2,120,S,0,1225,0,0,0,0,1,0,0,1,1,0,0,0,0,0,0,0,1,1,1,0
2060,22,44,2,132,U,0,130626
2061,22,44,2,132,U,0,33169
2062,22,44,2,132,U,0,90796
2063,22,44,2,132,U,0,19300
2064,22,44,2,132,U,0,1479
2065,22,44,2,132,U,0,15655
2066,22,44,2,132,U,0,27876
2067,22,44,2,132,U,0,22518
2068,22,44,2,132,U,0,49722
2069,22,44,2,132,U,0,8872
2070,24,48,2,144,U,0,25034
2071,24,48,2,144,U,0,77383
2072,24,48,2,144,U,0,91546
2073,24,48,2,144,S,0,41972,0,1,0,1,0,0,0,0,1,0,1,1,0,1,0,0,1,1,1,0,0,1,0,-1
2074,24,48,2,144,U,0,418746
2075,24,48,2,144,U,0,27627
2076,24,48,2,144,S,0,1171,0,0,1,0,0,0,0,0,0,1,0,0,0,1,0,0,0,0,1,1,1,1,0,1
2077,24,48,2,144,S,0,64853,1,0,0,0,0,1,0,0,0,0,1,1,0,1,0,1,0,0,0,1,1,0,1,0
2078,24,48,2,144,U,0,118383
2079,24,48,2,144,S,0,705,0,0,0,1,0,0,0,0,0,0,1,0,0,1,0,0,1,0,1,1,0,0,0,1
2080,4,20,3,80,U,0,170
2081,4,20,3,80,S,0,116,1,0,0,1
2082,4,20,3,80,S,0,58,0,0,0,0
2083,4,20,3,80,S,0,59,0,1,0,0
2084,4,20,3,80,U,0,83
2085,4,20,3,80,S,0,68,0,0,0,1
2086,4,20,3,80,S,0,99,0,0,1,1
2087,4,20,3,80,U,0,222
2088,4,20,3,80,U,0,156
2089,4,20,3,80,S,0,59,0,1,0,0
2090,8,40,3,160,S,0,1479,1,1,0,0,0,0,0,0
2091,8,40,3,160,U,0,1430
2092,8,40,3,160,U,0,1051
2093,8,40,3,160,S,0,792,0,1,1,0,0,1,0,1
2094,8,40,3,160,S,0,662,0,1,1,0,1,1,0,1
2095,8,40,3,160,S,0,242,0,0,0,1,1,0,1,0
2096,8,40,3,160,U,0,1347
2097,8,40,3,160,S,0,670,1,1,0,1,1,1,1,0
2098,8,40,3,160,U,0,904
2099,8,40,3,160,S,0,825,1,0,0,1,0,0,0,0
2100,12,60,3,240,U,0,3446
2101,12,60,3,240,U,0,12398
2102,12,60,3,240,U,0,6365
2103,12,60,3,240,S,0,1716,0,1,0,1,0,0,0,0,0,0,1,0
2104,12,60,3,240,S,0,1898,0,1,1,0,1,1,0,0,0,1,1,-1
2105,12,60,3,240,S,0,8126,1,0,0,0,0,0,0,1,1,1,0,0
2106,12,60,3,240,U,0,6382
2107,12,60,3,240,U,0,7037
2108,12,60,3,240,U,0,11744
2109,12,60,3,240,S,0,1399,1,0,0,1,0,1,0,0,1,1,1,1
2110,16,80,3,320,U,0,23204
2111,16,80,3,320,S,0,28943,1,1,1,1,0,0,1,0,0,0,0,1,1,0,0,1
2112,16,80,3,320,S,0,19227,1,0,0,0,1,0,0,1,0,0,0,1,1,1,0,1
2113,16,80,3,320,U,0,34729
2114,16,80,3,320,U,0,50288
2115,16,80,3,320,S,0,2048,0,0,0,0,0,1,0,0,1,1,0,0,1,0,1,0
2116,16,80,3,320,U,0,37912
2117,16,80,3,320,U,0,11409
2118,16,80,3,320,U,0,33711
2119,16,80,3,320,U,0,30779
2120,18,90,3,360,U,0,64754
2121,18,90,3,360,S,0,2489,0,0,0,0,0,1,1,0,0,1,1,0,0,1,1,0,1,1
2122,18,90,3,360,U,0,49852
2123,18,90,3,360,U,0,40311
2124,18,90,3,360,U,0,141992
2125,18,90,3,360,U,0,39651
2126,18,90,3,360,U,0,30132
2127,18,90,3,360,U,0,57479
2128,18,90,3,360,U,0,115685
2129,18,90,3,360,U,0,61297
2130,20,100,3,400,U,0,153356
2131,20,100,3,400,U,0,74417
2132,20,100,3,400,U,0,184743
2133,20,100,3,400,S,0,56230,0,0,1,1,0,0,1,1,0,0,1,1,0,0,0,1,1,0,0,-1
2134,20,100,3,400,U,0,125784
2135,20,100,3,400,U,0,190146
2136,20,100,3,400,U,0,180400
2137,20,100,3,400,U,0,53017
2138,20,100,3,400,U,0,135698
2139,20,100,3,400,S,0,105823,0,1,0,1,1,0,1,0,0,0,0,0,0,0,0,0,0,1,0,0
2140,22,110,3,440,U,0,62873
2141,22,110,3,440,U,0,440758
2142,22,110,3,440,U,0,118705
2143,22,110,3,440,U,0,737610
2144,22,110,3,440,U,0,379019
2145,22,110,3,440,S,0,36003,0,1,0,1,1,1,1,1,0,0,0,1,1,1,1,1,0,1,1,0,0,0
2146,22,110,3,440,U,0,121971
2147,22,110,3,440,U,0,128413
2148,22,110,3,440,U,0,127590
2149,22,110,3,440,U,0,228358
2150,24,120,3,480,U,0,408221
2151,24,120,3,480,U,0,994085
2152,24,120,3,480,U,0,459499
2153,24,120,3,480,U,0,647113
2154,24,120,3,480,U,0,399302
2155,24,120,3,480,U,0,141311
2156,24,120,3,480,U,0,251385
2157,24,120,3,480,U,0,513628
2158,24,120,3,480,U,0,363418
2159,24,120,3,480,S,0,27731,0,0,0,0,1,0,0,0,1,0,0,0,0,0,1,0,1,1,1,1,0,1,0,0
2160,4,40,4,200,U,0,285
2161,4,40,4,200,U,0,337
2162,4,40,4,200,U,0,364
2163,4,40,4,200,U,0,220
2164,4,40,4,200,S,0,146,0,0,0,1
2165,4,40,4,200,U,0,329
2166,4,40,4,200,S,0,150,0,0,1,1
2167,4,40,4,200,S,0,336,1,1,1,1
2168,4,40,4,200,S,0,203,0,1,0,1
2169,4,40,4,200,U,0,215
2170,8,80,4,400,U,0,2075
2171,8,80,4,400,S,0,2501,0,1,1,1,0,0,0,1
2172,8,80,4,400,S,0,2286,1,0,1,0,0,1,0,0
2173,8,80,4,400,S,0,2613,0,1,0,1,0,0,1,0
2174,8,80,4,400,S,0,3918,1,1,0,1,0,1,0,0
2175,8,80,4,400,S,0,4266,1,1,0,1,0,0,0,1
2176,8,80,4,400,S,0,2958,1,1,0,1,0,0,1,1
2177,8,80,4,400,U,0,7314
2178,8,80,4,400,U,0,4039
2179,8,80,4,400,S,0,3094,1,1,0,0,0,1,1,1
2180,12,120,4,600,S,0,2860,0,0,0,0,1,0,1,0,1,0,1,1
2181,12,120,4,600,S,0,4299,0,0,0,1,1,0,0,0,1,0,0,0
2182,12,120,4,600,S,0,20728,1,1,0,1,0,1,1,0,1,0,1,1
2183,12,120,4,600,U,0,14674
2184,12,120,4,600,U,0,18340
2185,12,120,4,600,U,0,23190
2186,12,120,4,600,S,0,9808,0,1,0,1,0,1,1,1,0,0,1,0
2187,12,120,4,600,U,0,18845
2188,12,120,4,600,S,0,13684,0,1,0,0,1,0,0,0,0,1,1,0
2189,12,120,4,600,U,0,22223
2190,16,160,4,800,U,0,159590
2191,16,160,4,800,U,0,162113
2192,16,160,4,800,U,0,125252
2193,16,160,4,800,S,0,51870,0,1,0,1,1,0,0,1,1,0,0,0,1,1,1,1
2194,16,160,4,800,U,0,312029
2195,16,160,4,800,S,0,100158,1,0,1,1,1,1,1,1,1,0,0,1,1,1,1,1
2196,16,160,4,800,U,0,214965
2197,16,160,4,800,U,0,124754
2198,16,160,4,800,S,0,36014,0,0,1,1,0,1,0,0,0,0,0,0,0,0,1,1
2199,16,160,4,800,S,0,10388,0,0,1,0,1,1,0,0,1,0,1,0,0,0,0,0
2200,18,180,4,900,S,0,130863,0,1,0,1,1,1,1,1,1,0,1,0,1,0,1,0,1,1
2201,18,180,4,900,S,0,143576,1,0,0,0,0,0,0,0,0,1,1,1,0,0,0,0,1,0
2202,18,180,4,900,U,0,237907
2203,18,180,4,900,S,0,20622,0,0,0,0,1,0,0,1,0,1,1,0,0,0,0,1,0,0
2204,18,180,4,900,U,0,266697
2205,18,180,4,900,S,0,44036,0,0,1,1,0,1,0,1,0,1,1,0,1,1,0,0,0,1
2206,18,180,4,900,S,0,210381,1,1,1,0,0,1,1,0,0,0,1,1,1,1,1,1,0,1
2207,18,180,4,900,U,0,176917
2208,18,180,4,900,U,0,324938
2209,18,180,4,900,S,0,354146,1,1,0,0,1,0,1,0,0,1,0,1,0,0,0,0,0,0
2210,20,200,4,1000,S,0,389885,0,1,1,0,1,0,1,1,0,1,0,0,1,1,0,1,1,0,1,0
2211,20,200,4,1000,S,0,26513,0,0,0,0,0,0,1,1,0,0,0,0,1,0,1,0,0,0,0,1
2212,20,200,4,1000,U,0,898474
2213,20,200,4,1000,U,0,558626
2214,20,200,4,1000,S,0,5245,0,0,0,0,0,0,0,1,0,1,1,1,0,1,0,0,0,0,1,0
2215,20,200,4,1000,U,0,719839
2216,20,200,4,1000,U,0,616514
2217,20,200,4,1000,U,0,983160
2218,20,200,4,1000,S,0,927139,1,0,1,1,1,0,0,1,0,1,0,1,0,1,0,0,1,0,0,1
2219,20,200,4,1000,S,0,7712,0,0,0,0,0,0,1,0,0,1,0,0,0,0,0,0,1,0,1,1
2220,22,220,4,1100,S,0,381019,0,0,1,1,0,0,1,0,1,1,1,0,0,1,1,0,0,0,1,1,0,0
2221,22,220,4,1100,S,0,525280,0,1,0,1,0,1,1,1,0,1,1,0,0,1,0,1,0,1,0,1,0,1
2222,22,220,4,1100,S,0,233994,0,0,0,1,1,0,0,0,1,0,1,1,1,1,0,1,0,1,1,0,0,1
2223,22,220,4,1100,S,0,379853,0,1,0,0,0,1,0,1,1,0,1,1,0,1,1,1,0,0,1,0,1,1
2224,22,220,4,1100,S,0,290115,0,0,1,0,0,0,0,0,0,1,1,1,1,0,0,1,1,0,1,0,1,1
2225,22,220,4,1100,U,0,1596009
2226,22,220,4,1100,U,0,1183391
2227,22,220,4,1100,S,0,1679222,1,0,1,1,0,1,1,1,1,1,1,1,0,1,0,0,1,0,0,0,1,1
2228,22,220,4,1100,U,0,1788682
2229,22,220,4,1100,U,0,992841
2230,24,240,4,1200,U,0,5333869
2231,24,240,4,1200,U,0,3073270
2232,24,240,4,1200,S,0,2915683,1,1,1,1,0,0,0,0,0,1,1,1,0,1,0,1,1,1,0,1,0,1,1,0
2233,24,240,4,1200,U,0,1660960
2234,24,240,4,1200,U,0,7136389
2235,24,240,4,1200,S,0,3430242,1,1,0,1,0,0,1,0,1,1,0,1,1,1,1,0,1,0,1,1,1,0,1,1
2236,24,240,4,1200,U,0,3127423
2237,24,240,4,1200,U,0,3900040
2238,24,240,4,1200,S,0,1145535,0,0,1,1,1,0,1,1,1,1,0,1,0,0,0,0,1,1,0,0,0,0,1,0
2239,24,240,4,1200,U,0,2141229
kSATu,satPSMF,240,92,148,0,0